{
  "notes": [
    {
      "id": 1,
      "content": "HTML is tricky",
      "date": "2020-01-10T17:30:31.098Z",
      "important": true
    },
    {
      "id": 2,
      "content": "Browser can execute only Javascript",
      "date": "2020-01-10T18:39:34.091Z",
      "important": false
    },
    {
      "id": 3,
      "content": "GET and POST are the most important methods of HTTP protocol",
      "date": "2020-01-10T19:20:14.298Z",
      "important": true
    }
  ]
}